267697 826526 509
678268 885320 525
190877 483793 449
256617 261525 345
605561 644639 509
395383 776762 509
170445 539063 470
549259 593243 434
13262 816409 509
324628 714427 509
494657 730318 509
203721 427324 449
597115 77432 470
463149 749430 509
187184 343149 443
283657 298271 389
341631 395700 441
575659 792154 509
492777 714268 509
31870 41077 324
243116 344104 407
166790 960912 525
488297 750029 509
530440 703342 509
603030 6081 470
12557 805797 509
137838 868712 525
375863 869109 525
156156 420444 449
321615 868704 525
278609 718614 509
539228 817803 509
881090 948946 507
758794 821677 468
318593 537433 470
714586 887674 525
217537 887925 525
436324 46711 449
486982 719879 509
422087 782395 509
707851 77164 509
695306 740527 504
346283 569885 470
779193 953057 525
134782 922081 525
601934 69828 470
603111 963426 525
759843 99028 509
623123 882203 525
932604 993860 507
428453 699968 509
392924 586648 470
374839 558462 470
408864 924637 525
747022 782225 468
563966 849889 525
43087 470794 449
185286 862661 525
210202 525220 470
663556 721785 504
182857 766580 509
408535 941987 525
772825 825272 468
196246 786450 509
758892 901534 525
517657 774646 509
117083 362796 443
141994 595807 470
128288 670610 509
892254 960004 507
514742 949693 525
713405 813209 468
115598 877521 525
12335 67144 340
763855 886563 525
290224 475912 449
232717 767173 509
723981 796703 468
632968 691530 442
494568 508533 426
512750 95835 470
156712 923307 525
438774 475991 444
246830 896714 525
284549 952320 525
370219 546711 470
162658 33049 383
356808 540048 470
272850 648753 509
627105 700181 442
286778 736379 509
36753 627260 509
410213 910930 525
348130 432906 449
133970 849438 525
507835 886372 525
697855 877339 525
746788 759624 424
154525 594781 470
324400 873178 525
602189 769498 509
863774 961015 507
164034 352778 443
799889 81276 509
103244 886189 525
146865 591881 470
215554 887928 525
349719 766223 509
449 898403 525
364327 605202 470
250999 421079 449
437196 528375 470
677046 916758 525
338016 869834 525
387007 574569 470
655079 889222 525
796488 880641 525
853086 964155 507
103736 939832 525
489527 945014 525
116402 761153 509
139940 420005 449
5420 962098 525
697366 728250 504
464255 719571 509
372635 555487 470
822292 919187 525
518747 687753 509
505041 625056 470
574082 710670 509
513288 767296 509
234981 956138 525
397902 673228 509
138484 415924 449
4202 657590 509
359115 554257 470
600670 69496 470
208102 559054 470
10926 916768 525
202048 696704 509
32472 943477 525
347625 462233 449
204302 81947 383
12419 401311 443
378854 950246 525
606868 688708 509
222540 525375 470
281108 380820 441
152593 739016 509
509551 983974 525
29289 419023 449
119828 994557 525
449353 616094 470
290556 789485 509
816392 877988 525
71679 999829 525
267100 839213 525
102479 628297 509
444901 565689 470
662655 983060 525
103575 549747 470
224626 521017 470
246897 413799 449
235192 63530 443
22777 500884 449
263882 64130 443
185454 259025 443
139850 989523 525
451568 670522 509
346106 816108 509
172879 746049 509
144814 351514 443
443760 887041 525
336392 758873 509
10498 609234 470
538892 934273 525
333528 44181 443
597668 805920 509
744425 854650 525
648224 658658 429
315035 761284 509
23963 855569 525
214003 692115 509
802852 834921 450
514016 579649 452
449445 484863 444
791096 892183 525
37448 795414 509
29952 372922 443
75082 768698 509
519775 618893 452
463509 720357 509
258204 371903 441
184947 618399 470
287138 320185 389
19413 564780 470
498399 851417 525
693478 84947 509
456682 768041 509
760633 866695 525
